1,517551.2769,5036084.146,160.17,0.0139
2,517551.3043,5036085.629,160.1661,0.0431
3,517551.3091,5036086.492,160.1839,0.0156
4,517551.319,5036087.444,160.1985,0.0111
5,517551.3212,5036088.07,160.2074,0.0131
6,517551.3379,5036088.633,160.2071,0.0139
7,517551.3357,5036089.579,160.2026,0.0135
8,517551.085,5036089.587,160.2224,0.0129
9,517550.1102,5036089.613,160.2282,0.0131
10,517549.6162,5036090.125,160.2094,0.016
11,517549.6277,5036090.661,160.2305,0.0472
12,517549.6273,5036090.658,160.2371,0.0137
13,517549.6527,5036091.717,160.2272,0.0163
100,517551.0189,5036084.138,160.1879,0.0119
101,517550.0159,5036084.147,160.1916,0.0153
102,517549.3738,5036084.16,160.1839,0.0104
103,517548.6692,5036084.167,160.206,0.0117
104,517547.7608,5036084.186,160.2164,0.0114
105,517547.0539,5036084.208,160.2197,0.0454
106,517546.5146,5036084.208,160.1933,0.0112
107,517545.7553,5036084.215,160.2147,0.0182
108,517545.054,5036084.22,160.2038,0.011
109,517544.1454,5036084.239,160.1943,0.0099
110,517543.2472,5036084.244,160.1935,0.0108
111,517543.0026,5036084.244,160.1649,0.0098
112,517542.9945,5036085.103,160.1798,0.045
113,517542.998,5036085.484,160.2128,0.0107
114,517542.5002,5036085.986,160.2022,0.0096
115,517542.4487,5036085.984,160.2027,0.0105
116,517541.894,5036085.993,160.2043,0.0097
117,517541.3435,5036085.99,160.2072,0.0101
118,517540.7984,5036086.004,160.2155,0.0099
119,517539.6709,5036086.012,160.1962,0.0104
120,517538.7607,5036086.016,160.1913,0.0114
121,517537.6483,5036086.034,160.1871,0.0094
122,517536.5826,5036086.047,160.2052,0.0116
123,517536.0301,5036086.057,160.2013,0.0096
124,517535.3213,5036086.052,160.2162,0.0454
125,517534.4228,5036086.074,160.1943,0.0107
126,517533.5219,5036086.093,160.2045,0.0106
127,517532.9647,5036086.096,160.1984,0.0113
128,517532.712,5036086.1,160.1974,0.0115
129,517532.7276,5036086.853,160.2196,0.0118
130,517532.7295,5036087.108,160.2184,0.0181
131,517532.7241,5036087.106,160.2164,0.0095
132,517532.2321,5036087.647,160.219,0.0106
133,517531.6618,5036087.766,160.1889,0.045
134,517530.6844,5036088.187,160.2065,0.0138
135,517529.8365,5036088.849,160.1985,0.0119
136,517529.1731,5036089.695,160.21,0.013
137,517528.7312,5036090.679,160.2142,0.0155
138,517528.5584,5036091.746,160.1972,0.0127
