1,517646.5415,5036043.969,159.929,0.0139
2,517646.5402,5036043.971,159.932,0.014
3,517646.5401,5036043.971,159.9311,0.0131
4,517646.5437,5036043.917,159.9352,0.014
5,517646.6451,5036043.944,159.9583,0.0122
6,517646.847,5036043.9,159.9678,0.0127
7,517646.9925,5036043.734,159.977,0.014
8,517647.2906,5036043.609,159.9644,0.013
9,517647.5441,5036043.425,159.9706,0.0165
10,517647.8317,5036043.288,159.9709,0.0123
11,517648.0791,5036043.178,159.9574,0.0112
12,517648.3032,5036043.02,159.9954,0.0153
13,517648.5834,5036042.944,159.9749,0.0133
14,517648.8607,5036042.781,159.9849,0.0137
15,517649.1404,5036042.684,159.9829,0.0138
16,517649.4235,5036042.507,159.9712,0.0146
17,517649.7206,5036042.349,159.9819,0.0111
18,517649.9976,5036042.221,159.9892,0.0145
19,517650.3117,5036042.027,159.983,0.0139
20,517650.6363,5036041.902,159.9809,0.0152
21,517650.926,5036041.768,159.9826,0.0131
22,517651.2231,5036041.581,159.9894,0.0131
23,517651.5332,5036041.479,159.999,0.0134
24,517651.8776,5036041.321,160.0163,0.0173
25,517652.1695,5036041.17,159.9926,0.0142
26,517652.4772,5036041.05,159.9877,0.0138
27,517652.7859,5036040.848,159.997,0.0135
28,517653.1476,5036040.687,159.991,0.0177
29,517653.4879,5036040.537,160.005,0.0133
30,517653.87,5036040.327,160.016,0.0159
31,517654.2639,5036040.153,160.0124,0.0136
32,517654.6913,5036039.945,160.008,0.0171
33,517655.0902,5036039.751,160.0298,0.0161
34,517655.4672,5036039.527,160.0267,0.0171
35,517655.9065,5036039.296,160.0178,0.0171
36,517656.3417,5036039.174,160.0101,0.0145
37,517656.7789,5036038.998,160.0034,0.0132
38,517657.188,5036038.79,160.0328,0.0129
39,517657.6127,5036038.631,160.0318,0.0141
40,517658.0753,5036038.377,160.0366,0.0147
41,517658.5302,5036038.178,160.0412,0.0127
42,517658.9901,5036038.001,160.0318,0.0141
43,517659.4488,5036037.77,160.0202,0.0141
44,517659.8965,5036037.563,160.0385,0.0156
45,517660.3499,5036037.392,160.0413,0.0172
46,517660.7873,5036037.183,160.0515,0.0172
47,517661.2615,5036036.975,160.0348,0.0193
48,517661.7247,5036036.794,160.0341,0.0232
49,517662.1958,5036036.602,160.0558,0.0174
50,517662.657,5036036.393,160.0542,0.0134
51,517663.0975,5036036.2,160.0644,0.0172
52,517663.5556,5036035.977,160.0808,0.0155
53,517664.0108,5036035.712,160.0785,0.0196
54,517664.4979,5036035.454,160.068,0.0248
55,517664.9621,5036035.243,160.0718,0.0289
56,517665.395,5036034.988,160.0728,0.0287
57,517665.864,5036034.787,160.0678,0.0209
58,517666.3381,5036034.583,160.074,0.0258
59,517666.8402,5036034.345,160.0657,0.0326
60,517667.3793,5036034.132,160.0499,0.0353
61,517667.842,5036033.957,160.0709,0.0419
62,517668.3325,5036033.731,160.0834,0.0213
63,517668.7841,5036033.576,160.1073,0.0218
64,517669.2471,5036033.402,160.0963,0.0132
65,517669.724,5036033.164,160.1258,0.0201
66,517670.1406,5036032.937,160.1487,0.0147
67,517670.6247,5036032.829,160.1485,0.0178
68,517671.1163,5036032.638,160.1355,0.0146
69,517671.6826,5036032.416,160.1674,0.0181
70,517672.2585,5036032.257,160.1397,0.0196
71,517672.8224,5036032.03,160.1427,0.0198
72,517673.3112,5036031.907,160.1705,0.0193
73,517673.9052,5036031.766,160.1449,0.0181
74,517674.4425,5036031.604,160.178,0.0192
75,517675.0176,5036031.501,160.1698,0.0259
76,517675.6361,5036031.333,160.1772,0.0246
77,517676.2486,5036031.218,160.1978,0.0173
78,517676.8387,5036031.063,160.1983,0.0196
79,517677.3814,5036030.893,160.2137,0.014
80,517677.9589,5036030.804,160.2079,0.0181
81,517678.5898,5036030.689,160.198,0.0161
82,517679.2406,5036030.571,160.1796,0.0197
83,517679.8666,5036030.471,160.224,0.0168
84,517680.4734,5036030.41,160.2168,0.0147
85,517681.1072,5036030.363,160.2601,0.0129
86,517681.7246,5036030.258,160.2492,0.016
87,517682.2557,5036030.165,160.293,0.0175
88,517682.833,5036030.166,160.2644,0.0149
89,517683.4656,5036030.051,160.2534,0.0179
90,517684.0815,5036030.017,160.2864,0.0188
91,517684.6673,5036030.047,160.2684,0.0304
92,517685.3197,5036030.012,160.296,0.0238
93,517685.9246,5036030.042,160.3059,0.0453
94,517686.5313,5036030.035,160.2957,0.0384
95,517687.1629,5036030.018,160.312,0.039
96,517687.7806,5036030.027,160.3397,0.0415
97,517688.4244,5036030.111,160.3423,0.0502
98,517688.9996,5036030.089,160.341,0.0599
99,517689.6306,5036030.084,160.344,0.0638
100,517690.2,5036030.109,160.3691,0.0641
101,517690.7641,5036030.182,160.3545,0.0792
102,517690.9092,5036030.199,160.3527,0.0841
103,517690.8754,5036030.146,160.3528,0.0934
104,517690.8572,5036030.153,160.3428,0.102
105,517690.8415,5036030.17,160.348,0.1089
106,517690.8337,5036030.154,160.3463,0.1163
107,517690.8188,5036030.15,160.3276,0.0636
108,517690.8406,5036030.155,160.2938,0.0144
109,517690.8481,5036030.14,160.2812,0.0145
110,517690.8578,5036030.153,160.2787,0.0154
111,517690.8311,5036030.183,160.2762,0.0161
112,517690.8652,5036030.164,160.2802,0.0136
113,517691.117,5036030.193,160.3182,0.0151
114,517691.4873,5036030.161,160.3464,0.0134
115,517691.9847,5036030.231,160.3482,0.0155
116,517692.5181,5036030.241,160.3646,0.0144
117,517693.0809,5036030.243,160.3585,0.0146
118,517693.5365,5036030.386,160.3556,0.0132
119,517694.0607,5036030.395,160.3555,0.015
120,517694.5913,5036030.393,160.3781,0.0135
121,517695.1123,5036030.46,160.3913,0.0146
122,517695.5761,5036030.5,160.3875,0.013
123,517696.0258,5036030.523,160.4043,0.0182
124,517696.5419,5036030.56,160.3921,0.0158
125,517697.105,5036030.641,160.3965,0.0151
126,517697.5597,5036030.67,160.4221,0.0133
127,517698.0877,5036030.745,160.4196,0.016
128,517698.6138,5036030.783,160.4165,0.0151
129,517699.1758,5036030.841,160.4301,0.0114
130,517699.67,5036030.946,160.4439,0.0148
131,517700.2391,5036030.995,160.4517,0.0147
132,517700.8338,5036031.105,160.491,0.015
133,517701.4448,5036031.243,160.4756,0.0133
134,517702.0612,5036031.333,160.5028,0.0166
135,517702.6617,5036031.418,160.5133,0.016
136,517703.1686,5036031.532,160.5112,0.0139
137,517703.6823,5036031.552,160.4949,0.0113
138,517704.2788,5036031.714,160.5214,0.017
139,517704.8673,5036031.918,160.5159,0.0151
140,517705.436,5036032.062,160.5178,0.0157
141,517706.057,5036032.268,160.5153,0.0134
142,517706.615,5036032.465,160.5231,0.0197
143,517707.1979,5036032.666,160.514,0.0209
144,517707.791,5036032.91,160.5475,0.0248
145,517708.3677,5036033.127,160.5621,0.0194
146,517708.8966,5036033.267,160.5653,0.0135
147,517709.487,5036033.482,160.5769,0.0124
148,517710.0755,5036033.753,160.5804,0.0123
149,517710.611,5036033.995,160.5741,0.0147
150,517711.1349,5036034.197,160.5967,0.013
151,517711.6804,5036034.458,160.6162,0.0133
152,517712.3118,5036034.74,160.5965,0.0118
153,517712.927,5036034.995,160.6021,0.0139
154,517713.5549,5036035.309,160.6111,0.0175
155,517714.0349,5036035.628,160.64,0.0158
156,517714.5857,5036035.831,160.6395,0.016
157,517715.2043,5036036.092,160.651,0.0125
158,517715.6678,5036036.408,160.6631,0.0124
159,517716.2506,5036036.691,160.6542,0.0141
160,517716.88,5036036.978,160.6867,0.0138
161,517717.3683,5036037.316,160.6914,0.0111
162,517717.8996,5036037.683,160.7009,0.0111
163,517718.45,5036038.052,160.74,0.0147
164,517718.9261,5036038.399,160.7326,0.0122
165,517719.5085,5036038.763,160.7323,0.0151
166,517720.0224,5036039.1,160.7387,0.0121
167,517720.5069,5036039.511,160.7224,0.014
168,517721.0533,5036039.931,160.7561,0.0113
169,517721.5754,5036040.257,160.7703,0.0136
170,517721.9504,5036040.654,160.769,0.0142
171,517722.3095,5036041.069,160.7661,0.0135
172,517722.616,5036041.564,160.7713,0.0139
173,517722.8153,5036042.117,160.7706,0.015
174,517723.1057,5036042.602,160.7765,0.0176
175,517723.345,5036043.15,160.823,0.0236
176,517723.625,5036043.765,160.7526,0.0147
177,517723.9129,5036044.292,160.7786,0.013
178,517724.1555,5036044.787,160.7816,0.0136
179,517724.4236,5036045.399,160.7602,0.0137
180,517724.6838,5036045.955,160.7846,0.012
181,517724.9474,5036046.532,160.792,0.0136
182,517725.2745,5036047.178,160.7836,0.0145
183,517725.5677,5036047.785,160.7882,0.0126
184,517725.8705,5036048.373,160.7688,0.0122
185,517726.1339,5036048.983,160.7886,0.0129
186,517726.4265,5036049.646,160.7657,0.0151
187,517726.6972,5036050.236,160.7957,0.0125
188,517727.0009,5036050.854,160.8068,0.0132
189,517727.261,5036051.464,160.7982,0.0151
190,517727.5521,5036052.085,160.8069,0.0132
191,517727.8295,5036052.719,160.7943,0.0141
192,517728.0288,5036053.326,160.8166,0.0174
193,517728.2157,5036053.904,160.8344,0.0185
194,517728.45,5036054.415,160.8248,0.0234
195,517728.6895,5036055.071,160.8384,0.0228
196,517728.8422,5036055.685,160.8282,0.0156
197,517728.9096,5036056.262,160.8513,0.0171
198,517729.1094,5036056.835,160.8617,0.0165
199,517729.2599,5036057.486,160.8725,0.0274
200,517729.5181,5036058.152,160.8706,0.0226
201,517729.7678,5036058.869,160.8432,0.0164
202,517729.8158,5036059.506,160.8289,0.017
203,517729.9617,5036060.184,160.8714,0.018
204,517730.1562,5036060.853,160.8628,0.0139
205,517730.3006,5036061.509,160.8731,0.0197
206,517730.3655,5036062.129,160.8832,0.0175
207,517730.4717,5036062.836,160.862,0.0154
208,517730.6757,5036063.515,160.868,0.0168
209,517730.805,5036064.206,160.8787,0.0154
210,517730.9601,5036064.874,160.9056,0.0177
211,517731.1451,5036065.611,160.8835,0.0178
212,517731.3322,5036066.29,160.9245,0.025
213,517731.4212,5036066.997,160.9034,0.0171
214,517731.5448,5036067.7,160.9531,0.0307
215,517731.7202,5036068.345,160.9608,0.0264
216,517731.8732,5036069.135,160.9337,0.0199
217,517731.9278,5036069.837,160.9458,0.0218
218,517732.0087,5036070.605,160.9344,0.0292
219,517732.1967,5036071.306,160.9316,0.0131
220,517732.2731,5036072.009,160.9204,0.0241
221,517732.3948,5036072.765,160.9481,0.0272
222,517732.5127,5036073.457,161.0284,0.0325
223,517732.6254,5036074.167,160.9786,0.0304
224,517732.6417,5036074.806,160.962,0.0217
225,517732.706,5036075.441,160.9855,0.0203
226,517732.8389,5036075.99,160.9703,0.0164
227,517732.8021,5036076.561,160.9782,0.0167
228,517732.5827,5036076.924,160.9601,0.0189
229,517732.2551,5036077.07,160.9596,0.0173
230,517731.6823,5036077.122,160.9467,0.0164
231,517731.1341,5036077.088,160.9574,0.02
232,517730.5529,5036077.101,160.9273,0.0153
233,517729.8519,5036077.118,160.8869,0.0194
234,517729.218,5036077.101,160.849,0.0208
235,517728.5951,5036077.073,160.8321,0.0177
236,517727.9045,5036077.064,160.8277,0.0314
237,517727.2606,5036077.112,160.8142,0.0225
238,517726.8672,5036077.536,160.7499,0.0226
239,517726.8592,5036078.138,160.7618,0.0241
240,517726.923,5036078.765,160.7414,0.0292
241,517726.9106,5036079.461,160.7213,0.0321
242,517726.8462,5036080.139,160.7466,0.028
243,517726.8533,5036080.804,160.7277,0.0212
244,517726.8437,5036081.519,160.7289,0.0244
245,517726.7627,5036082.196,160.7171,0.0327
246,517726.7681,5036082.847,160.7406,0.0465
247,517726.7291,5036083.512,160.7358,0.0229
248,517726.7305,5036084.183,160.7317,0.0291
249,517726.7596,5036084.819,160.7646,0.0428
250,517726.7738,5036085.513,160.7625,0.0267
251,517726.7517,5036086.238,160.7477,0.023
252,517726.6931,5036086.89,160.7643,0.017
253,517726.691,5036087.613,160.7649,0.0158
254,517726.6956,5036088.341,160.8212,0.0303
255,517726.7375,5036089.045,160.866,0.051
256,517726.6573,5036089.778,160.7633,0.0212
257,517726.6781,5036090.499,160.757,0.0235
258,517726.7063,5036091.22,160.7844,0.0199
259,517726.6664,5036091.929,160.768,0.0194
260,517726.6532,5036092.65,160.7657,0.0251
261,517726.5994,5036093.402,160.7589,0.0199
262,517726.6182,5036094.132,160.8088,0.0218
263,517726.6037,5036094.843,160.8141,0.0248
264,517726.5306,5036095.508,160.8084,0.0267
265,517726.5702,5036096.224,160.821,0.0184
266,517726.5522,5036096.987,160.7852,0.0238
267,517726.5333,5036097.726,160.8262,0.0396
268,517726.5073,5036098.48,160.8161,0.0469
269,517726.562,5036099.128,160.8459,0.0475
270,517726.6984,5036099.616,160.8442,0.0779
271,517727.0145,5036099.889,160.838,0.0444
272,517727.4047,5036099.861,160.8483,0.027
273,517727.9949,5036099.941,160.8303,0.0261
274,517728.8587,5036099.893,160.9001,0.0178
275,517729.6137,5036099.838,160.9167,0.0159
276,517730.4362,5036099.794,160.9518,0.0154
277,517731.2972,5036099.82,160.982,0.0205
278,517732.0009,5036099.91,161.015,0.0196
279,517732.5319,5036100.133,160.9854,0.0135
280,517732.5635,5036100.555,160.9833,0.0188
281,517732.5767,5036101.173,161.0086,0.0161
282,517732.4978,5036101.931,160.9901,0.015
283,517732.4713,5036102.698,161.0167,0.0159
284,517732.35,5036103.505,160.9733,0.0181
285,517732.1319,5036104.193,161.0003,0.015
286,517732.0903,5036104.96,160.9876,0.0161
287,517732.0017,5036105.76,160.9917,0.0152
288,517731.8462,5036106.579,160.9595,0.0141
289,517731.6938,5036107.302,160.9779,0.0145
290,517731.5671,5036108.064,160.9612,0.0142
291,517731.4508,5036108.835,160.9842,0.0148
292,517731.2684,5036109.662,160.9679,0.0179
293,517731.0891,5036110.379,160.965,0.0196
294,517730.9949,5036111.148,160.9748,0.0148
295,517730.8189,5036111.904,160.9839,0.0156
296,517730.6471,5036112.777,160.9441,0.0161
297,517730.4279,5036113.577,161.0272,0.0155
298,517730.3592,5036114.298,160.9932,0.0192
299,517730.1536,5036115.074,161.0028,0.0172
300,517729.9471,5036115.904,160.9847,0.0143
301,517729.6949,5036116.674,161.0034,0.0158
302,517729.4689,5036117.459,160.997,0.0189
303,517729.3288,5036118.267,161.0473,0.0273
304,517729.0666,5036119.07,161.0123,0.0196
305,517728.8201,5036119.817,160.9955,0.021
306,517728.6273,5036120.58,160.9799,0.0155
307,517728.4731,5036121.255,161.0118,0.0158
308,517728.2247,5036121.967,160.9852,0.0189
309,517727.9874,5036122.675,161.0413,0.0229
310,517727.7948,5036123.46,160.9878,0.0182
311,517727.5552,5036124.264,161.0243,0.0178
312,517727.2276,5036124.946,161.0023,0.0155
313,517727.0542,5036125.538,161.0106,0.0165
314,517726.8491,5036126.202,161.0075,0.0158
315,517726.5774,5036126.8,161.0042,0.0134
316,517726.3218,5036127.475,160.9947,0.0156
317,517726.1307,5036128.095,161.0065,0.0157
318,517725.803,5036128.794,160.9832,0.0144
319,517725.5211,5036129.447,161.0069,0.0198
320,517725.2595,5036130.165,161.0006,0.0189
321,517725.0183,5036130.847,161.0179,0.0173
322,517724.7132,5036131.582,160.9887,0.0218
323,517724.4053,5036132.264,160.9926,0.0134
324,517724.0324,5036132.987,160.9818,0.015
325,517723.7441,5036133.694,160.9809,0.0202
326,517723.324,5036134.387,160.995,0.0186
327,517722.9611,5036135.165,160.9759,0.0285
328,517722.5452,5036135.93,161.0025,0.0146
329,517722.1727,5036136.67,160.9959,0.0188
330,517721.8195,5036137.245,161.006,0.0143
331,517721.3621,5036137.605,161.0179,0.019
332,517720.7959,5036138.087,160.9889,0.0189
333,517720.1696,5036138.526,161.0008,0.0254
334,517719.4257,5036138.957,160.974,0.0197
335,517718.7341,5036139.34,160.9982,0.0202
336,517717.979,5036139.861,160.9597,0.0188
337,517717.28,5036140.345,160.9572,0.0154
338,517716.5849,5036140.851,160.9852,0.0141
339,517715.8583,5036141.224,160.9156,0.0238
340,517715.162,5036141.612,160.9013,0.0286
341,517714.4275,5036142.088,160.8838,0.0199
342,517713.6696,5036142.53,160.8779,0.0131
343,517712.8482,5036142.898,160.8637,0.0128
344,517712.0644,5036143.212,160.8687,0.0144
345,517711.2631,5036143.576,160.7949,0.0167
346,517710.5603,5036143.943,160.8277,0.0132
347,517709.8126,5036144.329,160.794,0.016
348,517709.1004,5036144.598,160.8158,0.012
349,517708.3576,5036144.879,160.7766,0.0216
350,517707.5221,5036145.16,160.7912,0.014
351,517706.7302,5036145.44,160.8005,0.0165
352,517705.8208,5036145.642,160.7479,0.0137
353,517704.9714,5036145.838,160.7634,0.0141
354,517704.1548,5036146.047,160.7391,0.016
355,517703.2936,5036146.315,160.7578,0.0162
356,517702.3792,5036146.465,160.7409,0.0183
357,517701.5395,5036146.649,160.7054,0.0167
358,517700.7043,5036146.789,160.7155,0.0221
359,517699.8062,5036146.898,160.691,0.0248
360,517698.9417,5036146.982,160.6741,0.0164
361,517698.1079,5036147.097,160.6997,0.0202
362,517697.2263,5036147.254,160.6497,0.0161
363,517696.3688,5036147.32,160.6545,0.0155
364,517695.5103,5036147.435,160.6272,0.0191
365,517694.6446,5036147.55,160.6108,0.0147
366,517693.8189,5036147.609,160.6159,0.0133
367,517692.9507,5036147.664,160.5764,0.0173
368,517692.0606,5036147.72,160.5689,0.013
369,517691.2696,5036147.796,160.5684,0.0138
370,517690.484,5036147.91,160.5496,0.0128
371,517689.6531,5036147.943,160.5493,0.0157
372,517688.7698,5036148.009,160.5206,0.0167
373,517687.996,5036148.016,160.5219,0.0156
374,517687.1219,5036148.046,160.4987,0.015
375,517686.3127,5036148.055,160.4988,0.0129
376,517685.4652,5036148.04,160.4662,0.0149
377,517684.5776,5036147.985,160.4927,0.0131
378,517683.6679,5036147.955,160.4606,0.0145
379,517682.8205,5036147.946,160.4613,0.0137
380,517681.9099,5036147.92,160.4653,0.015
381,517681.1204,5036147.783,160.4381,0.0145
382,517680.3256,5036147.687,160.4314,0.0149
383,517679.5033,5036147.598,160.4144,0.0154
384,517678.636,5036147.44,160.419,0.0137
385,517677.7741,5036147.309,160.4214,0.0142
386,517676.9025,5036147.09,160.4022,0.0203
387,517676.0189,5036146.88,160.3846,0.0122
388,517675.14,5036146.736,160.3613,0.0132
389,517674.2182,5036146.489,160.3585,0.0131
390,517673.4146,5036146.256,160.3603,0.0149
391,517672.5724,5036145.979,160.3372,0.0162
392,517671.6685,5036145.749,160.3257,0.0135
393,517670.8234,5036145.435,160.3202,0.0181
394,517669.9408,5036145.162,160.3101,0.0133
395,517669.0626,5036144.841,160.34,0.0168
396,517668.3082,5036144.505,160.2934,0.0158
397,517667.5528,5036144.147,160.2934,0.015
398,517666.7378,5036143.723,160.2826,0.0153
399,517665.8722,5036143.362,160.283,0.0173
400,517665.0677,5036143.014,160.2949,0.0149
401,517664.2665,5036142.609,160.2976,0.0159
402,517663.5578,5036142.139,160.2777,0.0144
403,517662.7386,5036141.729,160.3061,0.0193
404,517661.9125,5036141.365,160.2717,0.019
405,517661.1348,5036140.975,160.2956,0.0172
406,517660.3005,5036140.533,160.2465,0.0147
407,517659.5942,5036140.094,160.2716,0.0133
408,517658.8158,5036139.691,160.2717,0.017
409,517658.0203,5036139.241,160.2611,0.02
410,517657.2331,5036138.772,160.2861,0.0247
411,517656.4445,5036138.295,160.2488,0.0141
412,517655.6973,5036137.818,160.2592,0.0137
413,517654.8934,5036137.333,160.2548,0.0145
414,517654.1123,5036136.895,160.2126,0.0126
415,517653.4099,5036136.467,160.2382,0.0139
416,517652.6083,5036135.973,160.2144,0.0143
417,517651.8519,5036135.454,160.216,0.0123
418,517651.1015,5036134.94,160.2133,0.014
419,517650.3199,5036134.487,160.1951,0.0128
420,517649.5255,5036133.997,160.2127,0.0131
421,517648.7787,5036133.485,160.1943,0.0126
422,517648.0977,5036132.982,160.1929,0.0144
423,517647.4072,5036132.51,160.1838,0.017
424,517646.7721,5036132.153,160.2002,0.011
425,517646.2243,5036131.761,160.1679,0.0139
426,517645.9582,5036131.552,160.1529,0.0157
427,517645.866,5036131.523,160.1594,0.0148
428,517645.8568,5036131.554,160.1516,0.0121
429,517645.8705,5036131.543,160.1511,0.0134
